<?xml version="1.0" encoding="UTF-8"?>
<svg width="32px" height="32px" viewBox="0 0 32 32" version="1.1" xmlns="http://www.w3.org/2000/svg" xmlns:xlink="http://www.w3.org/1999/xlink">
    <g id="menu/azul" stroke="none" stroke-width="1" fill="none" fill-rule="evenodd">
        <rect id="Rectangle" fill="#ffffff" x="0" y="10" width="32" height="2"></rect>
        <rect id="Rectangle" fill="#ffffff" x="0" y="20" width="32" height="2"></rect>
    </g>
</svg>
